1. Summary
Meeting title	AWS Glue Catalog + Athena
Attended participants	8
Start time	6/20/22, 10:30:17 AM
End time	6/20/22, 12:18:22 PM
Meeting duration	1h 48m 5s
Average attendance time	1h 33m 51s

2. Participants
Name	First join	Last leave	In-meeting duration	Email	Participant ID (UPN)	Role
Leonardo Villalba Ferrer	6/20/22, 10:30:20 AM	6/20/22, 12:18:22 PM	1h 33m 19s	Leonardo.Villalba@jala-foundation.org	Leonardo.Villalba@jala-foundation.org	Presenter
Kevin Cardenas Rodriguez	6/20/22, 10:30:26 AM	6/20/22, 12:03:33 PM	1h 33m 6s	Kevin.Cardenas@jala-foundation.org	Kevin.Cardenas@jala-foundation.org	Presenter
Martin Gonzalez Torrilla	6/20/22, 10:30:31 AM	6/20/22, 12:03:31 PM	1h 33m	Martin.Gonzalez@jala-foundation.org	Martin.Gonzalez@jala-foundation.org	Presenter
Martin Pavesio Sabini	6/20/22, 10:30:36 AM	6/20/22, 12:03:33 PM	1h 32m 57s	Martin.Pavesio@jala-foundation.org	Martin.Pavesio@jala-foundation.org	Presenter
Joaquin Aman Alvarez	6/20/22, 10:30:38 AM	6/20/22, 12:03:31 PM	1h 32m 52s	Joaquin.Aman@jala-foundation.org	Joaquin.Aman@jala-foundation.org	Presenter
Maria Marquina Guevara	6/20/22, 10:30:45 AM	6/20/22, 12:03:31 PM	1h 32m 45s	Maria.Marquina@fundacion-jala.org	Maria.Marquina@fundacion-jala.org	Organizer
Luis Becerra Vazquez	6/20/22, 10:33:04 AM	6/20/22, 12:03:30 PM	1h 30m 25s	Luis.Becerra@jala-foundation.org	Luis.Becerra@jala-foundation.org	Presenter
Cesar Illanes Argote	6/20/22, 10:35:56 AM	6/20/22, 12:18:19 PM	1h 42m 23s	Cesar.Illanes@jala-foundation.org	Cesar.Illanes@jala-foundation.org	Presenter

3. In-Meeting activities
Name	Join time	Leave time	Duration	Email	Role
Leonardo Villalba Ferrer	6/20/22, 10:30:20 AM	6/20/22, 12:03:29 PM	1h 33m 8s	Leonardo.Villalba@jala-foundation.org	Presenter
Leonardo Villalba Ferrer	6/20/22, 12:18:11 PM	6/20/22, 12:18:22 PM	11s	Leonardo.Villalba@jala-foundation.org	Presenter
Kevin Cardenas Rodriguez	6/20/22, 10:30:26 AM	6/20/22, 12:03:33 PM	1h 33m 6s	Kevin.Cardenas@jala-foundation.org	Presenter
Martin Gonzalez Torrilla	6/20/22, 10:30:31 AM	6/20/22, 12:03:31 PM	1h 33m	Martin.Gonzalez@jala-foundation.org	Presenter
Martin Pavesio Sabini	6/20/22, 10:30:36 AM	6/20/22, 12:03:33 PM	1h 32m 57s	Martin.Pavesio@jala-foundation.org	Presenter
Joaquin Aman Alvarez	6/20/22, 10:30:38 AM	6/20/22, 12:03:31 PM	1h 32m 52s	Joaquin.Aman@jala-foundation.org	Presenter
Maria Marquina Guevara	6/20/22, 10:30:45 AM	6/20/22, 12:03:31 PM	1h 32m 45s	Maria.Marquina@fundacion-jala.org	Organizer
Luis Becerra Vazquez	6/20/22, 10:33:04 AM	6/20/22, 12:03:30 PM	1h 30m 25s	Luis.Becerra@jala-foundation.org	Presenter
Cesar Illanes Argote	6/20/22, 10:35:56 AM	6/20/22, 12:18:19 PM	1h 42m 23s	Cesar.Illanes@jala-foundation.org	Presenter
