1. Summary
Meeting title	Python training
Attended participants	9
Start time	9/15/22, 8:28:15 AM
End time	9/15/22, 9:32:04 AM
Meeting duration	1h 3m 49s
Average attendance time	58m 7s

2. Participants
Name	First join	Last leave	In-meeting duration	Email	Participant ID (UPN)	Role
Diego Jauregui Salvatierra	9/15/22, 8:28:19 AM	9/15/22, 9:31:50 AM	1h 3m 30s	Diego.Jauregui@jala.university	Diego.Jauregui@jala.university	Presenter
Maria Marquina Guevara	9/15/22, 8:30:15 AM	9/15/22, 9:31:39 AM	1h 1m 23s	Maria.Marquina@jala.university	Maria.Marquina@jala.university	Organizer
Andres Galvis Bolivar	9/15/22, 8:30:30 AM	9/15/22, 9:31:45 AM	1h 1m 15s	Andres.Galvis@jala.university	Andres.Galvis@jala.university	Presenter
Sergio Mallea Morales	9/15/22, 8:31:02 AM	9/15/22, 9:32:04 AM	1h 1m 1s	Sergio.Mallea@jala.university	Sergio.Mallea@jala.university	Presenter
Martin Ferreyra	9/15/22, 8:31:41 AM	9/15/22, 9:31:49 AM	1h 7s	Martin.Ferreyra@jala.university	Martin.Ferreyra@jala.university	Presenter
Adrian Clavijo Lopez	9/15/22, 8:31:49 AM	9/15/22, 9:31:50 AM	1h	Adrian.Clavijo@jala.university	Adrian.Clavijo@jala.university	Presenter
Camilo Villalba Sanz	9/15/22, 8:31:56 AM	9/15/22, 9:31:44 AM	59m 48s	Camilo.Villalba@jala.university	Camilo.Villalba@jala.university	Presenter
Jesus Vallecilla Solano	9/15/22, 8:32:13 AM	9/15/22, 9:31:54 AM	51m 48s	Jesus.Vallecilla@jala.university	Jesus.Vallecilla@jala.university	Presenter
Jason Pineda Serna	9/15/22, 8:47:33 AM	9/15/22, 9:31:42 AM	44m 8s	Jason.Pineda@jala.university	Jason.Pineda@jala.university	Presenter

3. In-Meeting activities
Name	Join time	Leave time	Duration	Email	Role
Diego Jauregui Salvatierra	9/15/22, 8:28:19 AM	9/15/22, 9:31:50 AM	1h 3m 30s	Diego.Jauregui@jala.university	Presenter
Maria Marquina Guevara	9/15/22, 8:30:15 AM	9/15/22, 9:31:39 AM	1h 1m 23s	Maria.Marquina@jala.university	Organizer
Andres Galvis Bolivar	9/15/22, 8:30:30 AM	9/15/22, 9:31:45 AM	1h 1m 15s	Andres.Galvis@jala.university	Presenter
Sergio Mallea Morales	9/15/22, 8:31:02 AM	9/15/22, 9:32:04 AM	1h 1m 1s	Sergio.Mallea@jala.university	Presenter
Martin Ferreyra	9/15/22, 8:31:41 AM	9/15/22, 9:31:49 AM	1h 7s	Martin.Ferreyra@jala.university	Presenter
Adrian Clavijo Lopez	9/15/22, 8:31:49 AM	9/15/22, 9:31:50 AM	1h	Adrian.Clavijo@jala.university	Presenter
Camilo Villalba Sanz	9/15/22, 8:31:56 AM	9/15/22, 9:31:44 AM	59m 48s	Camilo.Villalba@jala.university	Presenter
Jesus Vallecilla Solano	9/15/22, 8:32:13 AM	9/15/22, 9:10:01 AM	37m 48s	Jesus.Vallecilla@jala.university	Presenter
Jesus Vallecilla Solano	9/15/22, 9:17:54 AM	9/15/22, 9:31:54 AM	14m	Jesus.Vallecilla@jala.university	Presenter
Jason Pineda Serna	9/15/22, 8:47:33 AM	9/15/22, 9:31:42 AM	44m 8s	Jason.Pineda@jala.university	Presenter
